{ "frames": [
   {
    "filename": "player_00 (b) 0.aseprite",
    "frame": { "x": 0, "y": 0, "w": 80, "h": 48 },
    "rotated": false,
    "trimmed": false,
    "spriteSourceSize": { "x": 0, "y": 0, "w": 80, "h": 48 },
    "sourceSize": { "w": 80, "h": 48 },
    "duration": 100
   },
   {
    "filename": "player_00 (b) 1.aseprite",
    "frame": { "x": 80, "y": 0, "w": 80, "h": 48 },
    "rotated": false,
    "trimmed": false,
    "spriteSourceSize": { "x": 0, "y": 0, "w": 80, "h": 48 },
    "sourceSize": { "w": 80, "h": 48 },
    "duration": 100
   },
   {
    "filename": "player_00 (b) 2.aseprite",
    "frame": { "x": 160, "y": 0, "w": 80, "h": 48 },
    "rotated": false,
    "trimmed": false,
    "spriteSourceSize": { "x": 0, "y": 0, "w": 80, "h": 48 },
    "sourceSize": { "w": 80, "h": 48 },
    "duration": 100
   },
   {
    "filename": "player_00 (b) 3.aseprite",
    "frame": { "x": 240, "y": 0, "w": 80, "h": 48 },
    "rotated": false,
    "trimmed": false,
    "spriteSourceSize": { "x": 0, "y": 0, "w": 80, "h": 48 },
    "sourceSize": { "w": 80, "h": 48 },
    "duration": 100
   },
   {
    "filename": "player_00 (b) 4.aseprite",
    "frame": { "x": 320, "y": 0, "w": 80, "h": 48 },
    "rotated": false,
    "trimmed": false,
    "spriteSourceSize": { "x": 0, "y": 0, "w": 80, "h": 48 },
    "sourceSize": { "w": 80, "h": 48 },
    "duration": 100
   },
   {
    "filename": "player_00 (b) 5.aseprite",
    "frame": { "x": 400, "y": 0, "w": 80, "h": 48 },
    "rotated": false,
    "trimmed": false,
    "spriteSourceSize": { "x": 0, "y": 0, "w": 80, "h": 48 },
    "sourceSize": { "w": 80, "h": 48 },
    "duration": 100
   },
   {
    "filename": "player_00 (b) 6.aseprite",
    "frame": { "x": 480, "y": 0, "w": 80, "h": 48 },
    "rotated": false,
    "trimmed": false,
    "spriteSourceSize": { "x": 0, "y": 0, "w": 80, "h": 48 },
    "sourceSize": { "w": 80, "h": 48 },
    "duration": 100
   },
   {
    "filename": "player_00 (b) 7.aseprite",
    "frame": { "x": 560, "y": 0, "w": 80, "h": 48 },
    "rotated": false,
    "trimmed": false,
    "spriteSourceSize": { "x": 0, "y": 0, "w": 80, "h": 48 },
    "sourceSize": { "w": 80, "h": 48 },
    "duration": 100
   },
   {
    "filename": "player_00 (b) 8.aseprite",
    "frame": { "x": 640, "y": 0, "w": 80, "h": 48 },
    "rotated": false,
    "trimmed": false,
    "spriteSourceSize": { "x": 0, "y": 0, "w": 80, "h": 48 },
    "sourceSize": { "w": 80, "h": 48 },
    "duration": 100
   },
   {
    "filename": "player_00 (b) 9.aseprite",
    "frame": { "x": 720, "y": 0, "w": 80, "h": 48 },
    "rotated": false,
    "trimmed": false,
    "spriteSourceSize": { "x": 0, "y": 0, "w": 80, "h": 48 },
    "sourceSize": { "w": 80, "h": 48 },
    "duration": 100
   },
   {
    "filename": "player_00 (b) 10.aseprite",
    "frame": { "x": 800, "y": 0, "w": 80, "h": 48 },
    "rotated": false,
    "trimmed": false,
    "spriteSourceSize": { "x": 0, "y": 0, "w": 80, "h": 48 },
    "sourceSize": { "w": 80, "h": 48 },
    "duration": 100
   },
   {
    "filename": "player_00 (b) 11.aseprite",
    "frame": { "x": 880, "y": 0, "w": 80, "h": 48 },
    "rotated": false,
    "trimmed": false,
    "spriteSourceSize": { "x": 0, "y": 0, "w": 80, "h": 48 },
    "sourceSize": { "w": 80, "h": 48 },
    "duration": 100
   },
   {
    "filename": "player_00 (b) 12.aseprite",
    "frame": { "x": 960, "y": 0, "w": 80, "h": 48 },
    "rotated": false,
    "trimmed": false,
    "spriteSourceSize": { "x": 0, "y": 0, "w": 80, "h": 48 },
    "sourceSize": { "w": 80, "h": 48 },
    "duration": 100
   },
   {
    "filename": "player_00 (b) 13.aseprite",
    "frame": { "x": 1040, "y": 0, "w": 80, "h": 48 },
    "rotated": false,
    "trimmed": false,
    "spriteSourceSize": { "x": 0, "y": 0, "w": 80, "h": 48 },
    "sourceSize": { "w": 80, "h": 48 },
    "duration": 100
   },
   {
    "filename": "player_00 (b) 14.aseprite",
    "frame": { "x": 1120, "y": 0, "w": 80, "h": 48 },
    "rotated": false,
    "trimmed": false,
    "spriteSourceSize": { "x": 0, "y": 0, "w": 80, "h": 48 },
    "sourceSize": { "w": 80, "h": 48 },
    "duration": 100
   },
   {
    "filename": "player_00 (b) 15.aseprite",
    "frame": { "x": 1200, "y": 0, "w": 80, "h": 48 },
    "rotated": false,
    "trimmed": false,
    "spriteSourceSize": { "x": 0, "y": 0, "w": 80, "h": 48 },
    "sourceSize": { "w": 80, "h": 48 },
    "duration": 100
   },
   {
    "filename": "player_00 (b) 16.aseprite",
    "frame": { "x": 1280, "y": 0, "w": 80, "h": 48 },
    "rotated": false,
    "trimmed": false,
    "spriteSourceSize": { "x": 0, "y": 0, "w": 80, "h": 48 },
    "sourceSize": { "w": 80, "h": 48 },
    "duration": 100
   },
   {
    "filename": "player_00 (b) 17.aseprite",
    "frame": { "x": 1360, "y": 0, "w": 80, "h": 48 },
    "rotated": false,
    "trimmed": false,
    "spriteSourceSize": { "x": 0, "y": 0, "w": 80, "h": 48 },
    "sourceSize": { "w": 80, "h": 48 },
    "duration": 100
   }
 ],
 "meta": {
  "app": "http://www.aseprite.org/",
  "version": "1.2.25-dev",
  "image": "armor_00_b.png",
  "format": "RGBA8888",
  "size": { "w": 1440, "h": 48 },
  "scale": "1",
  "frameTags": [
   { "name": "stand", "from": 0, "to": 3, "direction": "forward" },
   { "name": "jump", "from": 4, "to": 4, "direction": "forward" },
   { "name": "slide", "from": 5, "to": 7, "direction": "forward" },
   { "name": "run", "from": 8, "to": 17, "direction": "forward" }
  ]
 }
}
