[gd_scene load_steps=3 format=2]

[ext_resource path="res://src/cameras/transitions/vertical/transition_cam_v.gd" type="Script" id=1]

[sub_resource type="RectangleShape2D" id=1]
extents = Vector2( 48, 2 )

[node name="TransitionCamV" type="Area2D"]
script = ExtResource( 1 )

[node name="CollisionShape2D" type="CollisionShape2D" parent="."]
shape = SubResource( 1 )
