{
  "suggest.maxCompleteItemCount": 10,
  "suggest.removeDuplicateItems": true,
  "suggest.defaultSortMethod": "alphabetical",
  "languageserver": {
    "godot": {
        "host": "127.0.0.1",
        "filetypes": ["gd", "gdscript", "gdscript3"],
        "port": 6008
    },
    "nim": {
      "command": "nimlsp",
      "filetypes": ["nim"]
    }
  },
  "clangd.path": "/home/elias/.config/coc/extensions/coc-clangd-data/install/11.0.0/clangd_11.0.0/bin/clangd"
}
