E<u{[ts]r}>c<sarut> de D<sota>
E<u{[ts]r}>c<sarut> de D<sota>
E<u{[ts]r}>c<sarut> de D<sota> E<u{[ts]r}>c<sarut> de D<sota>
E<u{[ts]r}>c<sarut> de D<sota>

E<u{[ts]r}>c<sarut> de D<sota>
E<u{[ts]r}>c<sarut> de D<sota>